<<<<<<< HEAD
    {
        "data": [
            {
                "archetype": "Branded",
                "card_prices": [
                    {
                        "coolstuffinc_price": "1.99",
                        "tcgplayer_price": "1.66",
                        "amazon_price": "1.58",
                        "ebay_price": "2.74",
                        "cardmarket_price": "1.18"
                    }
                ],
                "race": "Normal",
                "card_sets": [
                    {
                        "set_code": "SDAZ-EN021",
                        "set_rarity": "Super Rare",
                        "set_name": "Structure Deck: Albaz Strike",
                        "set_rarity_code": "(SR)",
                        "set_price": "3.13"
                    }
                ],
                "name": "Branded Fusion",
                "card_images": [
                    {
                        "image_url": "https://storage.googleapis.com/ygoprodeck.com/pics/44362883.jpg",
                        "image_url_small": "https://storage.googleapis.com/ygoprodeck.com/pics_small/44362883.jpg",
                        "id": 44362883
                    }
                ],
                "id": 44362883,
                "type": "Spell Card",
                "banlist_info": {
                    "ban_ocg": "Semi-Limited"
                },
                "desc": "Fusion Summon 1 Fusion Monster that mentions \"Fallen of Albaz\" as material from your Extra Deck, using 2 monsters from your hand, Deck, or field as Fusion Material. You cannot Special Summon monsters from the Extra Deck, except Fusion Monsters, the turn you activate this card. You can only activate 1 \"Branded Fusion\" per turn."
            }
        ]
    }


    {
        "data": [
            {
                "card_prices": [
                    {
                        "coolstuffinc_price": "0.99",
                        "tcgplayer_price": "0.24",
                        "amazon_price": "2.42",
                        "ebay_price": "1.24",
                        "cardmarket_price": "0.47"
                    }
                ],
                "def": 2400,
                "race": "Psychic",
                "card_sets": [
                    {
                        "set_code": "MP21-EN186",
                        "set_rarity": "Super Rare",
                        "set_name": "2021 Tin of Ancient Battles",
                        "set_rarity_code": "(SR)",
                        "set_price": "1.38"
                    },
                    {
                        "set_code": "PHRA-EN036",
                        "set_rarity": "Secret Rare",
                        "set_name": "Phantom Rage",
                        "set_rarity_code": "(ScR)",
                        "set_price": "6.49"
                    }
                ],
                "level": 9,
                "type": "Synchro Monster",
                "archetype": "Virtual World",
                "name": "Virtual World Kyubi - Shenshen",
                "atk": 2800,
                "card_images": [
                    {
                        "image_url": "https://storage.googleapis.com/ygoprodeck.com/pics/92519087.jpg",
                        "image_url_small": "https://storage.googleapis.com/ygoprodeck.com/pics_small/92519087.jpg",
                        "id": 92519087
                    }
                ],
                "id": 92519087,
                "attribute": "WIND",
                "desc":"1 Tuner + 1+ non-Tuner monsters\r\nAny card sent from the field to the GY is banished instead. You can only use each of the following effects of \"Virtual World Kyubi - Shenshen\" once per turn. When your monster declares an attack: You can return 1 banished monster to the owner's GY. During your Main Phase, except the turn this card was sent to the GY: You can banish 2 other monsters
=======
{
    "pagination": {
        "last_visible_page": 2,
        "has_next_page": true,
        "current_page": 1,
        "items": {
            "count": 25,
            "total": 29,
            "per_page": 25
        }
    },
    "data": [
        {
            "mal_id": 53240,
            "url": "https:\/\/myanimelist.net\/anime\/53240\/Naruto__Road_of_Naruto",
            "images": {
                "jpg": {
                    "image_url": "https:\/\/cdn.myanimelist.net\/images\/anime\/1207\/128768.jpg",
                    "small_image_url": "https:\/\/cdn.myanimelist.net\/images\/anime\/1207\/128768t.jpg",
                    "large_image_url": "https:\/\/cdn.myanimelist.net\/images\/anime\/1207\/128768l.jpg"
                },
                "webp": {
                    "image_url": "https:\/\/cdn.myanimelist.net\/images\/anime\/1207\/128768.webp",
                    "small_image_url": "https:\/\/cdn.myanimelist.net\/images\/anime\/1207\/128768t.webp",
                    "large_image_url": "https:\/\/cdn.myanimelist.net\/images\/anime\/1207\/128768l.webp"
                }
            },
            "trailer": {
                "youtube_id": null,
                "url": null,
                "embed_url": null,
                "images": {
                    "image_url": null,
                    "small_image_url": null,
                    "medium_image_url": null,
                    "large_image_url": null,
                    "maximum_image_url": null
                }
            },
            "approved": false,
            "titles": [
                {
                    "type": "Default",
                    "title": "Naruto: Road of Naruto"
                },
                {
                    "type": "Japanese",
                    "title": "\u300eNARUTO-\u30ca\u30eb\u30c8-\u300f20\u5468\u5e74\u8a18\u5ff5"
                },
                {
                    "type": "English",
                    "title": "Naruto: 20th Anniversary"
                }
            ],
            "title": "Naruto: Road of Naruto",
            "title_english": "Naruto: 20th Anniversary",
            "title_japanese": "\u300eNARUTO-\u30ca\u30eb\u30c8-\u300f20\u5468\u5e74\u8a18\u5ff5",
            "title_synonyms": [],
            "type": "Special",
            "source": "Manga",
            "episodes": 1,
            "status": "Finished Airing",
            "airing": false,
            "aired": {
                "from": "2022-10-03T00:00:00+00:00",
                "to": null,
                "prop": {
                    "from": {
                        "day": 3,
                        "month": 10,
                        "year": 2022
                    },
                    "to": {
                        "day": null,
                        "month": null,
                        "year": null
                    }
                },
                "string": "Oct 3, 2022 to ?"
            },
            "duration": "9 min",
            "rating": "PG-13 - Teens 13 or older",
            "score": null,
            "scored_by": null,
            "rank": 0,
            "popularity": 0,
            "members": 0,
            "favorites": 0,
            "synopsis": null,
            "background": null,
            "season": null,
            "year": null,
            "broadcast": {
                "day": null,
                "time": null,
                "timezone": null,
                "string": null
            },
            "producers": [],
            "licensors": [],
            "studios": [],
            "genres": [
                {
                    "mal_id": 1,
                    "type": "anime",
                    "name": "Action",
                    "url": "https:\/\/myanimelist.net\/anime\/genre\/1\/Action"
                },
                {
                    "mal_id": 10,
                    "type": "anime",
                    "name": "Fantasy",
                    "url": "https:\/\/myanimelist.net\/anime\/genre\/10\/Fantasy"
                }
            ],
            "explicit_genres": [],
            "themes": [
                {
                    "mal_id": 17,
                    "type": "anime",
                    "name": "Martial Arts",
                    "url": "https:\/\/myanimelist.net\/anime\/genre\/17\/Martial_Arts"
                }
            ],
            "demographics": [
                {
                    "mal_id": 27,
                    "type": "anime",
                    "name": "Shounen",
                    "url": "https:\/\/myanimelist.net\/anime\/genre\/27\/Shounen"
                }
            ]
        }
    ]
}
>>>>>>> 3b8c3b29062bf6412a60a4ffdf1e2db154c8302d
